<?xml version="1.0" encoding="utf-8"?>
<!-- Generator: Adobe Illustrator 18.1.1, SVG Export Plug-In . SVG Version: 6.00 Build 0)  -->
<svg version="1.1" id="图层_1" xmlns="http://www.w3.org/2000/svg" xmlns:xlink="http://www.w3.org/1999/xlink" x="0px" y="0px"
	 viewBox="0 0 9 7" enable-background="new 0 0 9 7" xml:space="preserve">
<polygon id="XMLID_1_" fill="#FFFFFF" points="9,0.8 8.4,0.2 3,5.7 0.6,3.2 0,3.8 3,6.8 3.6,6.2 3.6,6.2 "/>
</svg>
